MUSA 507 Final Project: EMS Call Location Prediction and the Responder App
…
Then, we joined each set of points to our fishnet. The goal is to get a new shapefile with count fields for each of our 6 independent variables. To do this, we rbind the 6 sf sets together into allVars.sf. The idea is to spatial join all four point sfs to the fishnet, count the number of points by variable (ie. Legend), and then spread the data to wide form so we end up with rows of fishnet grid cells and columns of count for each feature. The output is vars_net. It is in wide form as that is what we need for a regression. We also removed the  column that was generated.

vars_net1

## Simple feature collection with 200 features and 8 fields
## geometry type:  GEOMETRY
## dimension:      XY
## bbox:           xmin: -3473943 ymin: 994605 xmax: -3426648 ymax: 1063202
## epsg (SRID):    102285
## proj4string:    +proj=lcc +lat_1=38.3 +lat_2=39.45 +lat_0=37.66666666666666 +lon_0=-77 +x_0=400000 +y_0=0 +ellps=GRS80 +towgs84=0,0,0,0,0,0,0 +units=m +no_defs
## # A tibble: 200 x 9
## # Groups:   fishnetID [200]
##    fishnetID FireStations LawEnforcement Libraries MedicalFaciliti~
##    <chr>            <dbl>          <dbl>     <dbl>            <dbl>
##  1 1                    1              0         0                0
##  2 10                   0              0         0                0
##  3 100                  0              0         0                0
##  4 101                  0              0         0                0
##  5 102                  1              0         0                1
##  6 103                  0              0         0                0
##  7 104                  0              0         0                0
##  8 105                  0              0         0                0
##  9 106                  0              0         0                0
## 10 107                  0              0         0                0
## # ... with 190 more rows, and 4 more variables: NursingHomes <dbl>,
## #   schools <dbl>, `<NA>` <dbl>, geometry <GEOMETRY [m]>
…
EM1<-read.socrata("https://data.marincounty.org/resource/7bzr-ymkc.json")

#get 2017 count of calls in January
dat_17 <- 
  EM1 %>%
  mutate(dateTime = ymd_hms(EM1$time_call_was_received)) %>%
  filter(year(dateTime) == "2017",
         month(dateTime) == "1") 

#Group by ZipCode
dat_17 %>%
  group_by(incident_zip_postal) %>%
  count()

## # A tibble: 38 x 2
## # Groups:   incident_zip_postal [38]
##    incident_zip_postal     n
##    <chr>               <int>
##  1 94901                 253
##  2 94903                 262
##  3 94904                  47
##  4 94912                   2
##  5 94914                   1
##  6 94915                   1
##  7 94920                  61
##  8 94924                   5
##  9 94925                  64
## 10 94929                   1
## # ... with 28 more rows
…
